^C:\USERS\WEIYH\GOOGLE 雲端硬碟\ISLAB\行政\DSP助教\OPENCV範例\OPENCV\OPENCV\OBJ\RELEASE\MAIN.OBJ
/OUT:"BIN\RELEASE\OPENCV.EXE" /INCREMENTAL:NO /NOLOGO /LIBPATH:openCV\lib opencv_calib3d244.lib opencv_calib3d244d.lib opencv_contrib244.lib opencv_contrib244d.lib opencv_core244.lib opencv_core244d.lib opencv_features2d244.lib opencv_features2d244d.lib opencv_flann244.lib opencv_flann244d.lib opencv_gpu244.lib opencv_gpu244d.lib opencv_haartraining_engine.lib opencv_haartraining_engined.lib opencv_highgui244.lib opencv_highgui244d.lib opencv_imgproc244.lib opencv_imgproc244d.lib opencv_legacy244.lib opencv_legacy244d.lib opencv_ml244.lib opencv_ml244d.lib opencv_nonfree244.lib opencv_nonfree244d.lib opencv_objdetect244.lib opencv_objdetect244d.lib opencv_photo244.lib opencv_photo244d.lib opencv_stitching244.lib opencv_stitching244d.lib opencv_ts244.lib opencv_ts244d.lib opencv_video244.lib opencv_video244d.lib opencv_videostab244.lib opencv_videostab244d.lib kernel32.lib user32.lib gdi32.lib winspool.lib comdlg32.lib advapi32.lib shell32.lib ole32.lib oleaut32.lib uuid.lib odbc32.lib odbccp32.lib /MANIFEST /MANIFESTUAC:"level='asInvoker' uiAccess='false'" /manifest:embed /DEBUG /PDB:"BIN\RELEASE\OPENCV.PDB" /SUBSYSTEM:CONSOLE /OPT:REF /OPT:ICF /LTCG /TLBID:1 /DYNAMICBASE /NXCOMPAT /IMPLIB:"BIN\RELEASE\OPENCV.LIB" /MACHINE:X86 /SAFESEH OBJ\RELEASE\MAIN.OBJ
^C:\USERS\CGGM\DESKTOP\DIP_EXTRA HOMEWORK 1\OPENCV SAMPLE-VS2012\OPENCV\OPENCV\OBJ\RELEASE\MAIN.OBJ
/OUT:"BIN\RELEASE\OPENCV.EXE" /INCREMENTAL:NO /NOLOGO /LIBPATH:openCV\lib opencv_calib3d244.lib opencv_calib3d244d.lib opencv_contrib244.lib opencv_contrib244d.lib opencv_core244.lib opencv_core244d.lib opencv_features2d244.lib opencv_features2d244d.lib opencv_flann244.lib opencv_flann244d.lib opencv_gpu244.lib opencv_gpu244d.lib opencv_haartraining_engine.lib opencv_haartraining_engined.lib opencv_highgui244.lib opencv_highgui244d.lib opencv_imgproc244.lib opencv_imgproc244d.lib opencv_legacy244.lib opencv_legacy244d.lib opencv_ml244.lib opencv_ml244d.lib opencv_nonfree244.lib opencv_nonfree244d.lib opencv_objdetect244.lib opencv_objdetect244d.lib opencv_photo244.lib opencv_photo244d.lib opencv_stitching244.lib opencv_stitching244d.lib opencv_ts244.lib opencv_ts244d.lib opencv_video244.lib opencv_video244d.lib opencv_videostab244.lib opencv_videostab244d.lib kernel32.lib user32.lib gdi32.lib winspool.lib comdlg32.lib advapi32.lib shell32.lib ole32.lib oleaut32.lib uuid.lib odbc32.lib odbccp32.lib /MANIFEST /MANIFESTUAC:"level='asInvoker' uiAccess='false'" /manifest:embed /DEBUG /PDB:"BIN\RELEASE\OPENCV.PDB" /SUBSYSTEM:CONSOLE /OPT:REF /OPT:ICF /LTCG /TLBID:1 /DYNAMICBASE /NXCOMPAT /IMPLIB:"BIN\RELEASE\OPENCV.LIB" /MACHINE:X86 /SAFESEH OBJ\RELEASE\MAIN.OBJ
^C:\USERS\CGGM\DESKTOP\CV_PROJECT\OPENCV SAMPLE-VS2012\OPENCV\OPENCV\OBJ\RELEASE\MAIN.OBJ
/OUT:"BIN\RELEASE\OPENCV.EXE" /INCREMENTAL:NO /NOLOGO /LIBPATH:openCV\lib opencv_calib3d244.lib opencv_calib3d244d.lib opencv_contrib244.lib opencv_contrib244d.lib opencv_core244.lib opencv_core244d.lib opencv_features2d244.lib opencv_features2d244d.lib opencv_flann244.lib opencv_flann244d.lib opencv_gpu244.lib opencv_gpu244d.lib opencv_haartraining_engine.lib opencv_haartraining_engined.lib opencv_highgui244.lib opencv_highgui244d.lib opencv_imgproc244.lib opencv_imgproc244d.lib opencv_legacy244.lib opencv_legacy244d.lib opencv_ml244.lib opencv_ml244d.lib opencv_nonfree244.lib opencv_nonfree244d.lib opencv_objdetect244.lib opencv_objdetect244d.lib opencv_photo244.lib opencv_photo244d.lib opencv_stitching244.lib opencv_stitching244d.lib opencv_ts244.lib opencv_ts244d.lib opencv_video244.lib opencv_video244d.lib opencv_videostab244.lib opencv_videostab244d.lib kernel32.lib user32.lib gdi32.lib winspool.lib comdlg32.lib advapi32.lib shell32.lib ole32.lib oleaut32.lib uuid.lib odbc32.lib odbccp32.lib /MANIFEST /MANIFESTUAC:"level='asInvoker' uiAccess='false'" /manifest:embed /DEBUG /PDB:"BIN\RELEASE\OPENCV.PDB" /SUBSYSTEM:CONSOLE /OPT:REF /OPT:ICF /LTCG /TLBID:1 /DYNAMICBASE /NXCOMPAT /IMPLIB:"BIN\RELEASE\OPENCV.LIB" /MACHINE:X86 /SAFESEH OBJ\RELEASE\MAIN.OBJ
^C:\USERS\HEDE0724\DESKTOP\CV\LIPSYNCPROJECT\OPENCV SAMPLE-VS2012\OPENCV\OPENCV\OBJ\RELEASE\COMISSION.OBJ|C:\USERS\HEDE0724\DESKTOP\CV\LIPSYNCPROJECT\OPENCV SAMPLE-VS2012\OPENCV\OPENCV\OBJ\RELEASE\LIPSYNCSYSTEM.OBJ|C:\USERS\HEDE0724\DESKTOP\CV\LIPSYNCPROJECT\OPENCV SAMPLE-VS2012\OPENCV\OPENCV\OBJ\RELEASE\MAIN.OBJ|C:\USERS\HEDE0724\DESKTOP\CV\LIPSYNCPROJECT\OPENCV SAMPLE-VS2012\OPENCV\OPENCV\OBJ\RELEASE\NEXTDATE.OBJ|C:\USERS\HEDE0724\DESKTOP\CV\LIPSYNCPROJECT\OPENCV SAMPLE-VS2012\OPENCV\OPENCV\OBJ\RELEASE\NEXTDATETEST.OBJ|C:\USERS\HEDE0724\DESKTOP\CV\LIPSYNCPROJECT\OPENCV SAMPLE-VS2012\OPENCV\OPENCV\OBJ\RELEASE\TRIANGLE.OBJ|C:\USERS\HEDE0724\DESKTOP\CV\LIPSYNCPROJECT\OPENCV SAMPLE-VS2012\OPENCV\OPENCV\OBJ\RELEASE\TRIANGLETEST.OBJ
/OUT:"BIN\RELEASE\OPENCV.EXE" /INCREMENTAL:NO /NOLOGO /LIBPATH:openCV\lib opencv_calib3d244.lib opencv_calib3d244d.lib opencv_contrib244.lib opencv_contrib244d.lib opencv_core244.lib opencv_core244d.lib opencv_features2d244.lib opencv_features2d244d.lib opencv_flann244.lib opencv_flann244d.lib opencv_gpu244.lib opencv_gpu244d.lib opencv_haartraining_engine.lib opencv_haartraining_engined.lib opencv_highgui244.lib opencv_highgui244d.lib opencv_imgproc244.lib opencv_imgproc244d.lib opencv_legacy244.lib opencv_legacy244d.lib opencv_ml244.lib opencv_ml244d.lib opencv_nonfree244.lib opencv_nonfree244d.lib opencv_objdetect244.lib opencv_objdetect244d.lib opencv_photo244.lib opencv_photo244d.lib opencv_stitching244.lib opencv_stitching244d.lib opencv_ts244.lib opencv_ts244d.lib opencv_video244.lib opencv_video244d.lib opencv_videostab244.lib opencv_videostab244d.lib kernel32.lib user32.lib gdi32.lib winspool.lib comdlg32.lib advapi32.lib shell32.lib ole32.lib oleaut32.lib uuid.lib odbc32.lib odbccp32.lib /MANIFEST /MANIFESTUAC:"level='asInvoker' uiAccess='false'" /manifest:embed /DEBUG /PDB:"BIN\RELEASE\OPENCV.PDB" /SUBSYSTEM:CONSOLE /OPT:REF /OPT:ICF /LTCG /TLBID:1 /DYNAMICBASE /NXCOMPAT /IMPLIB:"BIN\RELEASE\OPENCV.LIB" /MACHINE:X86 /SAFESEH OBJ\RELEASE\COMISSION.OBJOBJ\RELEASE\LIPSYNCSYSTEM.OBJOBJ\RELEASE\MAIN.OBJOBJ\RELEASE\NEXTDATE.OBJOBJ\RELEASE\NEXTDATETEST.OBJOBJ\RELEASE\TRIANGLE.OBJOBJ\RELEASE\TRIANGLETEST.OBJ
^C:\USERS\HEDE0724\DESKTOP\CV\LIPSYNCPROJECT\OPENCV SAMPLE-VS2012\OPENCV\OPENCV\OBJ\RELEASE\COMISSION.OBJ|C:\USERS\HEDE0724\DESKTOP\CV\LIPSYNCPROJECT\OPENCV SAMPLE-VS2012\OPENCV\OPENCV\OBJ\RELEASE\LIPSYNCSYSTEM.OBJ|C:\USERS\HEDE0724\DESKTOP\CV\LIPSYNCPROJECT\OPENCV SAMPLE-VS2012\OPENCV\OPENCV\OBJ\RELEASE\MAIN.OBJ|C:\USERS\HEDE0724\DESKTOP\CV\LIPSYNCPROJECT\OPENCV SAMPLE-VS2012\OPENCV\OPENCV\OBJ\RELEASE\NEXTDATE.OBJ|C:\USERS\HEDE0724\DESKTOP\CV\LIPSYNCPROJECT\OPENCV SAMPLE-VS2012\OPENCV\OPENCV\OBJ\RELEASE\NEXTDATETEST.OBJ|C:\USERS\HEDE0724\DESKTOP\CV\LIPSYNCPROJECT\OPENCV SAMPLE-VS2012\OPENCV\OPENCV\OBJ\RELEASE\RANGE.OBJ|C:\USERS\HEDE0724\DESKTOP\CV\LIPSYNCPROJECT\OPENCV SAMPLE-VS2012\OPENCV\OPENCV\OBJ\RELEASE\RANGETEST.OBJ|C:\USERS\HEDE0724\DESKTOP\CV\LIPSYNCPROJECT\OPENCV SAMPLE-VS2012\OPENCV\OPENCV\OBJ\RELEASE\TRIANGLE.OBJ|C:\USERS\HEDE0724\DESKTOP\CV\LIPSYNCPROJECT\OPENCV SAMPLE-VS2012\OPENCV\OPENCV\OBJ\RELEASE\TRIANGLETEST.OBJ
/OUT:"BIN\RELEASE\OPENCV.EXE" /INCREMENTAL:NO /NOLOGO /LIBPATH:openCV\lib opencv_calib3d244.lib opencv_calib3d244d.lib opencv_contrib244.lib opencv_contrib244d.lib opencv_core244.lib opencv_core244d.lib opencv_features2d244.lib opencv_features2d244d.lib opencv_flann244.lib opencv_flann244d.lib opencv_gpu244.lib opencv_gpu244d.lib opencv_haartraining_engine.lib opencv_haartraining_engined.lib opencv_highgui244.lib opencv_highgui244d.lib opencv_imgproc244.lib opencv_imgproc244d.lib opencv_legacy244.lib opencv_legacy244d.lib opencv_ml244.lib opencv_ml244d.lib opencv_nonfree244.lib opencv_nonfree244d.lib opencv_objdetect244.lib opencv_objdetect244d.lib opencv_photo244.lib opencv_photo244d.lib opencv_stitching244.lib opencv_stitching244d.lib opencv_ts244.lib opencv_ts244d.lib opencv_video244.lib opencv_video244d.lib opencv_videostab244.lib opencv_videostab244d.lib kernel32.lib user32.lib gdi32.lib winspool.lib comdlg32.lib advapi32.lib shell32.lib ole32.lib oleaut32.lib uuid.lib odbc32.lib odbccp32.lib /MANIFEST /MANIFESTUAC:"level='asInvoker' uiAccess='false'" /manifest:embed /DEBUG /PDB:"BIN\RELEASE\OPENCV.PDB" /SUBSYSTEM:CONSOLE /OPT:REF /OPT:ICF /LTCG /TLBID:1 /DYNAMICBASE /NXCOMPAT /IMPLIB:"BIN\RELEASE\OPENCV.LIB" /MACHINE:X86 /SAFESEH OBJ\RELEASE\COMISSION.OBJOBJ\RELEASE\LIPSYNCSYSTEM.OBJOBJ\RELEASE\MAIN.OBJOBJ\RELEASE\NEXTDATE.OBJOBJ\RELEASE\NEXTDATETEST.OBJOBJ\RELEASE\RANGE.OBJOBJ\RELEASE\RANGETEST.OBJOBJ\RELEASE\TRIANGLE.OBJOBJ\RELEASE\TRIANGLETEST.OBJ
^C:\USERS\CGGM\DESKTOP\CV_PROJECT\OPENCV SAMPLE-VS2012\OPENCV\OPENCV\OBJ\RELEASE\COMISSION.OBJ|C:\USERS\CGGM\DESKTOP\CV_PROJECT\OPENCV SAMPLE-VS2012\OPENCV\OPENCV\OBJ\RELEASE\COMISSIONTEST.OBJ|C:\USERS\CGGM\DESKTOP\CV_PROJECT\OPENCV SAMPLE-VS2012\OPENCV\OPENCV\OBJ\RELEASE\LIPSYNCSYSTEM.OBJ|C:\USERS\CGGM\DESKTOP\CV_PROJECT\OPENCV SAMPLE-VS2012\OPENCV\OPENCV\OBJ\RELEASE\MAIN.OBJ|C:\USERS\CGGM\DESKTOP\CV_PROJECT\OPENCV SAMPLE-VS2012\OPENCV\OPENCV\OBJ\RELEASE\NEXTDATE.OBJ|C:\USERS\CGGM\DESKTOP\CV_PROJECT\OPENCV SAMPLE-VS2012\OPENCV\OPENCV\OBJ\RELEASE\NEXTDATETEST.OBJ|C:\USERS\CGGM\DESKTOP\CV_PROJECT\OPENCV SAMPLE-VS2012\OPENCV\OPENCV\OBJ\RELEASE\RANGE.OBJ|C:\USERS\CGGM\DESKTOP\CV_PROJECT\OPENCV SAMPLE-VS2012\OPENCV\OPENCV\OBJ\RELEASE\RANGETEST.OBJ|C:\USERS\CGGM\DESKTOP\CV_PROJECT\OPENCV SAMPLE-VS2012\OPENCV\OPENCV\OBJ\RELEASE\TRIANGLE.OBJ|C:\USERS\CGGM\DESKTOP\CV_PROJECT\OPENCV SAMPLE-VS2012\OPENCV\OPENCV\OBJ\RELEASE\TRIANGLETEST.OBJ
/OUT:"BIN\RELEASE\OPENCV.EXE" /INCREMENTAL:NO /NOLOGO /LIBPATH:openCV\lib opencv_calib3d244.lib opencv_calib3d244d.lib opencv_contrib244.lib opencv_contrib244d.lib opencv_core244.lib opencv_core244d.lib opencv_features2d244.lib opencv_features2d244d.lib opencv_flann244.lib opencv_flann244d.lib opencv_gpu244.lib opencv_gpu244d.lib opencv_haartraining_engine.lib opencv_haartraining_engined.lib opencv_highgui244.lib opencv_highgui244d.lib opencv_imgproc244.lib opencv_imgproc244d.lib opencv_legacy244.lib opencv_legacy244d.lib opencv_ml244.lib opencv_ml244d.lib opencv_nonfree244.lib opencv_nonfree244d.lib opencv_objdetect244.lib opencv_objdetect244d.lib opencv_photo244.lib opencv_photo244d.lib opencv_stitching244.lib opencv_stitching244d.lib opencv_ts244.lib opencv_ts244d.lib opencv_video244.lib opencv_video244d.lib opencv_videostab244.lib opencv_videostab244d.lib kernel32.lib user32.lib gdi32.lib winspool.lib comdlg32.lib advapi32.lib shell32.lib ole32.lib oleaut32.lib uuid.lib odbc32.lib odbccp32.lib /MANIFEST /MANIFESTUAC:"level='asInvoker' uiAccess='false'" /manifest:embed /DEBUG /PDB:"BIN\RELEASE\OPENCV.PDB" /SUBSYSTEM:CONSOLE /OPT:REF /OPT:ICF /LTCG /TLBID:1 /DYNAMICBASE /NXCOMPAT /IMPLIB:"BIN\RELEASE\OPENCV.LIB" /MACHINE:X86 /SAFESEH OBJ\RELEASE\COMISSION.OBJOBJ\RELEASE\COMISSIONTEST.OBJOBJ\RELEASE\LIPSYNCSYSTEM.OBJOBJ\RELEASE\MAIN.OBJOBJ\RELEASE\NEXTDATE.OBJOBJ\RELEASE\NEXTDATETEST.OBJOBJ\RELEASE\RANGE.OBJOBJ\RELEASE\RANGETEST.OBJOBJ\RELEASE\TRIANGLE.OBJOBJ\RELEASE\TRIANGLETEST.OBJ
^C:\USERS\HEDE0724\DESKTOP\CV\LIPSYNCPROJECT\OPENCV SAMPLE-VS2012\OPENCV\OPENCV\OBJ\RELEASE\COMISSION.OBJ|C:\USERS\HEDE0724\DESKTOP\CV\LIPSYNCPROJECT\OPENCV SAMPLE-VS2012\OPENCV\OPENCV\OBJ\RELEASE\COMISSIONTEST.OBJ|C:\USERS\HEDE0724\DESKTOP\CV\LIPSYNCPROJECT\OPENCV SAMPLE-VS2012\OPENCV\OPENCV\OBJ\RELEASE\LIPSYNCSYSTEM.OBJ|C:\USERS\HEDE0724\DESKTOP\CV\LIPSYNCPROJECT\OPENCV SAMPLE-VS2012\OPENCV\OPENCV\OBJ\RELEASE\MAIN.OBJ|C:\USERS\HEDE0724\DESKTOP\CV\LIPSYNCPROJECT\OPENCV SAMPLE-VS2012\OPENCV\OPENCV\OBJ\RELEASE\NEXTDATE.OBJ|C:\USERS\HEDE0724\DESKTOP\CV\LIPSYNCPROJECT\OPENCV SAMPLE-VS2012\OPENCV\OPENCV\OBJ\RELEASE\NEXTDATETEST.OBJ|C:\USERS\HEDE0724\DESKTOP\CV\LIPSYNCPROJECT\OPENCV SAMPLE-VS2012\OPENCV\OPENCV\OBJ\RELEASE\RANGE.OBJ|C:\USERS\HEDE0724\DESKTOP\CV\LIPSYNCPROJECT\OPENCV SAMPLE-VS2012\OPENCV\OPENCV\OBJ\RELEASE\RANGETEST.OBJ|C:\USERS\HEDE0724\DESKTOP\CV\LIPSYNCPROJECT\OPENCV SAMPLE-VS2012\OPENCV\OPENCV\OBJ\RELEASE\TRIANGLE.OBJ|C:\USERS\HEDE0724\DESKTOP\CV\LIPSYNCPROJECT\OPENCV SAMPLE-VS2012\OPENCV\OPENCV\OBJ\RELEASE\TRIANGLETEST.OBJ
/OUT:"BIN\RELEASE\OPENCV.EXE" /INCREMENTAL:NO /NOLOGO /LIBPATH:openCV\lib opencv_calib3d244.lib opencv_calib3d244d.lib opencv_contrib244.lib opencv_contrib244d.lib opencv_core244.lib opencv_core244d.lib opencv_features2d244.lib opencv_features2d244d.lib opencv_flann244.lib opencv_flann244d.lib opencv_gpu244.lib opencv_gpu244d.lib opencv_haartraining_engine.lib opencv_haartraining_engined.lib opencv_highgui244.lib opencv_highgui244d.lib opencv_imgproc244.lib opencv_imgproc244d.lib opencv_legacy244.lib opencv_legacy244d.lib opencv_ml244.lib opencv_ml244d.lib opencv_nonfree244.lib opencv_nonfree244d.lib opencv_objdetect244.lib opencv_objdetect244d.lib opencv_photo244.lib opencv_photo244d.lib opencv_stitching244.lib opencv_stitching244d.lib opencv_ts244.lib opencv_ts244d.lib opencv_video244.lib opencv_video244d.lib opencv_videostab244.lib opencv_videostab244d.lib kernel32.lib user32.lib gdi32.lib winspool.lib comdlg32.lib advapi32.lib shell32.lib ole32.lib oleaut32.lib uuid.lib odbc32.lib odbccp32.lib /MANIFEST /MANIFESTUAC:"level='asInvoker' uiAccess='false'" /manifest:embed /DEBUG /PDB:"BIN\RELEASE\OPENCV.PDB" /SUBSYSTEM:CONSOLE /OPT:REF /OPT:ICF /LTCG /TLBID:1 /DYNAMICBASE /NXCOMPAT /IMPLIB:"BIN\RELEASE\OPENCV.LIB" /MACHINE:X86 /SAFESEH OBJ\RELEASE\COMISSION.OBJOBJ\RELEASE\COMISSIONTEST.OBJOBJ\RELEASE\LIPSYNCSYSTEM.OBJOBJ\RELEASE\MAIN.OBJOBJ\RELEASE\NEXTDATE.OBJOBJ\RELEASE\NEXTDATETEST.OBJOBJ\RELEASE\RANGE.OBJOBJ\RELEASE\RANGETEST.OBJOBJ\RELEASE\TRIANGLE.OBJOBJ\RELEASE\TRIANGLETEST.OBJ
^D:\GOOGLETESTFRAMEWORK\LIPSYNCPROJECT\OPENCV SAMPLE-VS2012\OPENCV\OPENCV\OBJ\RELEASE\COMISSION.OBJ|D:\GOOGLETESTFRAMEWORK\LIPSYNCPROJECT\OPENCV SAMPLE-VS2012\OPENCV\OPENCV\OBJ\RELEASE\COMISSIONTEST.OBJ|D:\GOOGLETESTFRAMEWORK\LIPSYNCPROJECT\OPENCV SAMPLE-VS2012\OPENCV\OPENCV\OBJ\RELEASE\LIPSYNCSYSTEM.OBJ|D:\GOOGLETESTFRAMEWORK\LIPSYNCPROJECT\OPENCV SAMPLE-VS2012\OPENCV\OPENCV\OBJ\RELEASE\MAIN.OBJ|D:\GOOGLETESTFRAMEWORK\LIPSYNCPROJECT\OPENCV SAMPLE-VS2012\OPENCV\OPENCV\OBJ\RELEASE\NEXTDATE.OBJ|D:\GOOGLETESTFRAMEWORK\LIPSYNCPROJECT\OPENCV SAMPLE-VS2012\OPENCV\OPENCV\OBJ\RELEASE\NEXTDATETEST.OBJ|D:\GOOGLETESTFRAMEWORK\LIPSYNCPROJECT\OPENCV SAMPLE-VS2012\OPENCV\OPENCV\OBJ\RELEASE\RANGE.OBJ|D:\GOOGLETESTFRAMEWORK\LIPSYNCPROJECT\OPENCV SAMPLE-VS2012\OPENCV\OPENCV\OBJ\RELEASE\RANGETEST.OBJ|D:\GOOGLETESTFRAMEWORK\LIPSYNCPROJECT\OPENCV SAMPLE-VS2012\OPENCV\OPENCV\OBJ\RELEASE\TRIANGLE.OBJ|D:\GOOGLETESTFRAMEWORK\LIPSYNCPROJECT\OPENCV SAMPLE-VS2012\OPENCV\OPENCV\OBJ\RELEASE\TRIANGLETEST.OBJ
/OUT:"BIN\RELEASE\OPENCV.EXE" /INCREMENTAL:NO /NOLOGO /LIBPATH:OPENCV\LIB OPENCV_CALIB3D244.LIB OPENCV_CALIB3D244D.LIB OPENCV_CONTRIB244.LIB OPENCV_CONTRIB244D.LIB OPENCV_CORE244.LIB OPENCV_CORE244D.LIB OPENCV_FEATURES2D244.LIB OPENCV_FEATURES2D244D.LIB OPENCV_FLANN244.LIB OPENCV_FLANN244D.LIB OPENCV_GPU244.LIB OPENCV_GPU244D.LIB OPENCV_HAARTRAINING_ENGINE.LIB OPENCV_HAARTRAINING_ENGINED.LIB OPENCV_HIGHGUI244.LIB OPENCV_HIGHGUI244D.LIB OPENCV_IMGPROC244.LIB OPENCV_IMGPROC244D.LIB OPENCV_LEGACY244.LIB OPENCV_LEGACY244D.LIB OPENCV_ML244.LIB OPENCV_ML244D.LIB OPENCV_NONFREE244.LIB OPENCV_NONFREE244D.LIB OPENCV_OBJDETECT244.LIB OPENCV_OBJDETECT244D.LIB OPENCV_PHOTO244.LIB OPENCV_PHOTO244D.LIB OPENCV_STITCHING244.LIB OPENCV_STITCHING244D.LIB OPENCV_TS244.LIB OPENCV_TS244D.LIB OPENCV_VIDEO244.LIB OPENCV_VIDEO244D.LIB OPENCV_VIDEOSTAB244.LIB OPENCV_VIDEOSTAB244D.LIB KERNEL32.LIB USER32.LIB GDI32.LIB WINSPOOL.LIB COMDLG32.LIB ADVAPI32.LIB SHELL32.LIB OLE32.LIB OLEAUT32.LIB UUID.LIB ODBC32.LIB ODBCCP32.LIB /MANIFEST /MANIFESTUAC:"level='asInvoker' uiAccess='false'" /manifest:embed /DEBUG /PDB:"BIN\RELEASE\OPENCV.PDB" /SUBSYSTEM:CONSOLE /OPT:REF /OPT:ICF /LTCG:incremental /TLBID:1 /DYNAMICBASE /NXCOMPAT /IMPLIB:"BIN\RELEASE\OPENCV.LIB" /MACHINE:X86 /SAFESEH OBJ\RELEASE\COMISSION.OBJOBJ\RELEASE\COMISSIONTEST.OBJOBJ\RELEASE\LIPSYNCSYSTEM.OBJOBJ\RELEASE\MAIN.OBJOBJ\RELEASE\NEXTDATE.OBJOBJ\RELEASE\NEXTDATETEST.OBJOBJ\RELEASE\RANGE.OBJOBJ\RELEASE\RANGETEST.OBJOBJ\RELEASE\TRIANGLE.OBJOBJ\RELEASE\TRIANGLETEST.OBJ
